{
  "project_info": {
    "project_number": "883493393031",
    "firebase_url": "https://aihdoctorapp.firebaseio.com",
    "project_id": "aihdoctorapp",
    "storage_bucket": "aihdoctorapp.appspot.com"
  },
  "client": [
    {
      "client_info": {
        "mobilesdk_app_id": "1:883493393031:android:c1d413de914794705b1e22",
        "android_client_info": {
          "package_name": "com.mingroup.aihdoctorapp"
        }
      },
      "oauth_client": [
        {
          "client_id": "883493393031-4louq7lvk2dm5b3o20j1ao37amnqnnmo.apps.googleusercontent.com",
          "client_type": 1,
          "android_info": {
            "package_name": "com.mingroup.aihdoctorapp",
            "certificate_hash": "1969e93ddc175909368609e265660662203d2b95"
          }
        },
        {
          "client_id": "883493393031-ecpgrsvb33tgaje9d527hmm26vja56mb.apps.googleusercontent.com",
          "client_type": 3
        }
      ],
      "api_key": [
        {
          "current_key": "AIzaSyBOaaPM6udmx3SMg-3CIdnmYbF1E7WOmE8"
        }
      ],
      "services": {
        "appinvite_service": {
          "other_platform_oauth_client": [
            {
              "client_id": "883493393031-ecpgrsvb33tgaje9d527hmm26vja56mb.apps.googleusercontent.com",
              "client_type": 3
            }
          ]
        }
      }
    }
  ],
  "configuration_version": "1"
}